<?xml version="1.0" encoding="UTF-8"?>
<svg width="16" height="16" version="1.1" viewBox="0 0 16 16" xmlns="http://www.w3.org/2000/svg">
 <path d="m2.9787 1.0005c-0.47834 0-0.7264 0.446-0.55621 1l0.9216 3c0.17019 0.554 0.69227 1 1.1706 1h0.86341l0.30419 0.9902a1.1125 0.77626 52.305 0 0-0.25414 0.062l-1.5607 0.6836-1.2202-2.0508a1.1125 0.77626 52.305 0 0-1.0692-0.6972 1.1125 0.77626 52.305 0 0-0.37616 1.3281l1.785 3a1.1125 0.77626 52.305 0 0 1.2871 0.6328l1.2814-0.5605 0.18779 0.6113c0.012595 0.041 0.039506 0.076 0.055625 0.1152l-3.015 3.0528a1.1125 0.77626 52.305 1 0 1.469 1.664l3.3303-3.3711 2.2074 2.9864a1.1125 0.77626 52.305 0 0 1.1997 0.5019l2.283-1a1.1125 0.77626 52.305 1 0-1.129-1.8965l-1.6576 0.7246-1.4409-1.9511c0.18363-0.1777 0.25963-0.4723 0.15091-0.8262l-0.3072-1h1.1939l1.0686 1.4473a1.1125 0.7763 52.305 1 0 1.2699-0.8946l-1.4778-2a1.1125 0.77626 52.305 0 0-0.94214-0.5527h-2.5902l-0.3072-1h0.86341c0.47834 0 0.7264-0.446 0.55621-1l-0.9216-3c-0.17019-0.554-0.69227-1-1.1706-1zm0.6144 2h0.86341l0.6144 2h-0.86341z" fill="#8da5f3"/>
 <g fill="none" stroke="#8da5f3" stroke-linecap="round">
  <path d="m9.5 2.5h3"/>
  <path d="m13.5 8.5h1"/>
  <path d="m10.5 5.5h3"/>
 </g>
</svg>
